{
    "value": "{\"source\":\"xmlsoccer\",\"data\":[{\"Id\":\"360439\",\"Date\":\"2016-06-21T19:00:00+00:00\",\"League\":\"EURO 2016\",\"Round\":\"3\",\"HomeTeam\":\"Czech Republic\",\"HomeTeam_Id\":\"320\",\"HomeGoals\":\"0\",\"AwayTeam\":\"Turkey\",\"AwayTeam_Id\":\"1388\",\"AwayGoals\":\"0\",\"Time\":\"Not started\",\"Location\":null,\"HomeTeamYellowCardDetails\":null,\"AwayTeamYellowCardDetails\":null,\"HomeTeamRedCardDetails\":null,\"AwayTeamRedCardDetails\":null,\"Group\":\"Group D\",\"Group_Id\":\"77\",\"HasBeenRescheduled\":\"false\"},{\"Id\":\"360438\",\"Date\":\"2016-06-21T19:00:00+00:00\",\"League\":\"EURO 2016\",\"Round\":\"3\",\"HomeTeam\":\"Croatia\",\"HomeTeam_Id\":\"328\",\"HomeGoals\":\"0\",\"AwayTeam\":\"Spain\",\"AwayTeam_Id\":\"325\",\"AwayGoals\":\"0\",\"Time\":\"Not started\",\"Location\":null,\"HomeTeamYellowCardDetails\":null,\"AwayTeamYellowCardDetails\":null,\"HomeTeamRedCardDetails\":null,\"AwayTeamRedCardDetails\":null,\"Group\":\"Group D\",\"Group_Id\":\"77\",\"HasBeenRescheduled\":\"false\"},{\"Id\":\"360433\",\"Date\":\"2016-06-21T16:00:00+00:00\",\"League\":\"EURO 2016\",\"Round\":\"3\",\"HomeTeam\":\"N.Ireland\",\"HomeTeam_Id\":\"1387\",\"HomeGoals\":\"0\",\"AwayTeam\":\"Germany\",\"AwayTeam_Id\":\"323\",\"AwayGoals\":\"1\",\"Time\":\"51'\",\"Location\":null,\"HomeTeamYellowCardDetails\":null,\"AwayTeamYellowCardDetails\":null,\"HomeTeamRedCardDetails\":null,\"AwayTeamRedCardDetails\":null,\"Group\":\"Group C\",\"Group_Id\":\"76\",\"HasBeenRescheduled\":\"false\"},{\"Id\":\"360432\",\"Date\":\"2016-06-21T16:00:00+00:00\",\"League\":\"EURO 2016\",\"Round\":\"3\",\"HomeTeam\":\"Ukraine\",\"HomeTeam_Id\":\"331\",\"HomeGoals\":\"0\",\"AwayTeam\":\"Poland\",\"AwayTeam_Id\":\"317\",\"AwayGoals\":\"0\",\"Time\":\"51'\",\"Location\":null,\"HomeTeamYellowCardDetails\":\"38': Oleksandr Kucher;25': Ruslan Rotan;\",\"AwayTeamYellowCardDetails\":null,\"HomeTeamRedCardDetails\":null,\"AwayTeamRedCardDetails\":null,\"Group\":\"Group C\",\"Group_Id\":\"76\",\"HasBeenRescheduled\":\"false\"},{\"Id\":\"360427\",\"Date\":\"2016-06-20T19:00:00+00:00\",\"League\":\"EURO 2016\",\"Round\":\"3\",\"HomeTeam\":\"Slovakia\",\"HomeTeam_Id\":\"1386\",\"HomeGoals\":\"0\",\"AwayTeam\":\"England\",\"AwayTeam_Id\":\"330\",\"AwayGoals\":\"0\",\"Time\":\"Finished\",\"Location\":null,\"HomeTeamYellowCardDetails\":\"24': Viktor Pecovsky;\",\"AwayTeamYellowCardDetails\":\"52': Ryan Bertrand;\",\"HomeTeamRedCardDetails\":null,\"AwayTeamRedCardDetails\":null,\"Group\":\"Group B\",\"Group_Id\":\"75\",\"HasBeenRescheduled\":\"false\"},{\"Id\":\"360426\",\"Date\":\"2016-06-20T19:00:00+00:00\",\"League\":\"EURO 2016\",\"Round\":\"3\",\"HomeTeam\":\"Russia\",\"HomeTeam_Id\":\"319\",\"HomeGoals\":\"0\",\"AwayTeam\":\"Wales\",\"AwayTeam_Id\":\"1385\",\"AwayGoals\":\"3\",\"Time\":\"Finished\",\"Location\":null,\"HomeTeamYellowCardDetails\":\"64': Pavel Mamaev;\",\"AwayTeamYellowCardDetails\":\"17': Sam Vokes;\",\"HomeTeamRedCardDetails\":null,\"AwayTeamRedCardDetails\":null,\"Group\":\"Group B\",\"Group_Id\":\"75\",\"HasBeenRescheduled\":\"false\"},{\"Id\":\"360421\",\"Date\":\"2016-06-19T19:00:00+00:00\",\"League\":\"EURO 2016\",\"Round\":\"3\",\"HomeTeam\":\"Romania\",\"HomeTeam_Id\":\"1383\",\"HomeGoals\":\"0\",\"AwayTeam\":\"Albania\",\"AwayTeam_Id\":\"1384\",\"AwayGoals\":\"1\",\"Time\":\"Finished\",\"Location\":null,\"HomeTeamYellowCardDetails\":\"90': Gabriel Torje;85': Cristian Sapunaru;54': Alexandru Matel;\",\"AwayTeamYellowCardDetails\":\"90': Elseid Hysaj;85': Ledian Memushaj;6': Migjen Basha;\",\"HomeTeamRedCardDetails\":null,\"AwayTeamRedCardDetails\":null,\"Group\":\"Group A\",\"Group_Id\":\"74\",\"HasBeenRescheduled\":\"false\"},{\"Id\":\"360420\",\"Date\":\"2016-06-19T19:00:00+00:00\",\"League\":\"EURO 2016\",\"Round\":\"3\",\"HomeTeam\":\"Switzerland\",\"HomeTeam_Id\":\"966\",\"HomeGoals\":\"0\",\"AwayTeam\":\"France\",\"AwayTeam_Id\":\"329\",\"AwayGoals\":\"0\",\"Time\":\"Finished\",\"Location\":null,\"HomeTeamYellowCardDetails\":null,\"AwayTeamYellowCardDetails\":\"83': Laurent Koscielny;25': Adil Rami;\",\"HomeTeamRedCardDetails\":null,\"AwayTeamRedCardDetails\":null,\"Group\":\"Group A\",\"Group_Id\":\"74\",\"HasBeenRescheduled\":\"false\"}]}",
    "expire": "1466529301125"
}