{
    "value": "{\"source\":\"xmlsoccer\",\"data\":[{\"Id\":\"362562\",\"Date\":\"2016-06-29T00:30:00+00:00\",\"League\":\"Brasileirão Série B\",\"Round\":\"13\",\"HomeTeam\":\"Goias\",\"HomeTeam_Id\":\"750\",\"AwayTeam\":\"Paysandu\",\"AwayTeam_Id\":\"1293\",\"Location\":\"Serra Dourada\",\"HasBeenRescheduled\":\"true\"},{\"Id\":\"362561\",\"Date\":\"2016-06-29T00:30:00+00:00\",\"League\":\"Brasileirão Série B\",\"Round\":\"13\",\"HomeTeam\":\"Bragantino\",\"HomeTeam_Id\":\"1201\",\"AwayTeam\":\"Ceara\",\"AwayTeam_Id\":\"1209\",\"Location\":\"Nabi Abi Chedid\",\"HasBeenRescheduled\":\"true\"},{\"Id\":\"362569\",\"Date\":\"2016-06-28T23:30:00+00:00\",\"League\":\"Brasileirão Série B\",\"Round\":\"13\",\"HomeTeam\":\"Sampaio Correa\",\"HomeTeam_Id\":\"1210\",\"AwayTeam\":\"Tupi\",\"AwayTeam_Id\":\"4717\",\"Location\":\"Castelão\",\"HasBeenRescheduled\":\"true\"},{\"Id\":\"362568\",\"Date\":\"2016-06-28T23:30:00+00:00\",\"League\":\"Brasileirão Série B\",\"Round\":\"13\",\"HomeTeam\":\"Vasco da Gama\",\"HomeTeam_Id\":\"737\",\"AwayTeam\":\"Parana Clube\",\"AwayTeam_Id\":\"1206\",\"Location\":\"São Januário\",\"HasBeenRescheduled\":\"true\"},{\"Id\":\"362565\",\"Date\":\"2016-06-28T23:30:00+00:00\",\"League\":\"Brasileirão Série B\",\"Round\":\"13\",\"HomeTeam\":\"Nautico\",\"HomeTeam_Id\":\"744\",\"AwayTeam\":\"Luverdense\",\"AwayTeam_Id\":\"1213\",\"Location\":\"Estádio dos Aflitos\",\"HasBeenRescheduled\":\"true\"},{\"Id\":\"362567\",\"Date\":\"2016-06-28T22:15:00+00:00\",\"League\":\"Brasileirão Série B\",\"Round\":\"13\",\"HomeTeam\":\"Bahia\",\"HomeTeam_Id\":\"748\",\"AwayTeam\":\"Oeste FC\",\"AwayTeam_Id\":\"1205\",\"Location\":\"Arena Fonte Nova\",\"HasBeenRescheduled\":\"true\"},{\"Id\":\"362566\",\"Date\":\"2016-06-28T22:15:00+00:00\",\"League\":\"Brasileirão Série B\",\"Round\":\"13\",\"HomeTeam\":\"Avai FC\",\"HomeTeam_Id\":\"1203\",\"AwayTeam\":\"Vila Nova\",\"AwayTeam_Id\":\"1199\",\"Location\":\"Estádio Dr. Aderbal Ramos da Silva (Ressacada)\",\"HasBeenRescheduled\":\"true\"},{\"Id\":\"362564\",\"Date\":\"2016-06-28T22:15:00+00:00\",\"League\":\"Brasileirão Série B\",\"Round\":\"13\",\"HomeTeam\":\"Londrina EC\",\"HomeTeam_Id\":\"4718\",\"AwayTeam\":\"Brasil de Pelotas\",\"AwayTeam_Id\":\"4719\",\"Location\":\"Estádio do Café\",\"HasBeenRescheduled\":\"true\"},{\"Id\":\"362563\",\"Date\":\"2016-06-28T22:15:00+00:00\",\"League\":\"Brasileirão Série B\",\"Round\":\"13\",\"HomeTeam\":\"Joinville\",\"HomeTeam_Id\":\"1208\",\"AwayTeam\":\"CRB\",\"AwayTeam_Id\":\"1292\",\"Location\":\"Arena Joinville\",\"HasBeenRescheduled\":\"true\"},{\"Id\":\"362560\",\"Date\":\"2016-06-27T23:00:00+00:00\",\"League\":\"Brasileirão Série B\",\"Round\":\"13\",\"HomeTeam\":\"Atletico GO\",\"HomeTeam_Id\":\"1202\",\"AwayTeam\":\"Criciuma\",\"AwayTeam_Id\":\"747\",\"Location\":\"Estádio Serra Dourada\",\"HasBeenRescheduled\":\"true\"},{\"Id\":\"362557\",\"Date\":\"2016-06-26T00:00:00+00:00\",\"League\":\"Brasileirão Série B\",\"Round\":\"12\",\"HomeTeam\":\"Oeste FC\",\"HomeTeam_Id\":\"1205\",\"AwayTeam\":\"Sampaio Correa\",\"AwayTeam_Id\":\"1210\",\"Location\":\"Idenor Picardi Semeghini\",\"HasBeenRescheduled\":\"true\"},{\"Id\":\"362550\",\"Date\":\"2016-06-26T00:00:00+00:00\",\"League\":\"Brasileirão Série B\",\"Round\":\"12\",\"HomeTeam\":\"Tupi\",\"HomeTeam_Id\":\"4717\",\"AwayTeam\":\"Avai FC\",\"AwayTeam_Id\":\"1203\",\"Location\":\"Mário Helênio\",\"HasBeenRescheduled\":\"true\"},{\"Id\":\"362553\",\"Date\":\"2016-06-25T19:30:00+00:00\",\"League\":\"Brasileirão Série B\",\"Round\":\"12\",\"HomeTeam\":\"CRB\",\"HomeTeam_Id\":\"1292\",\"HomeGoals\":\"0\",\"AwayTeam\":\"Vasco da Gama\",\"AwayTeam_Id\":\"737\",\"AwayGoals\":\"0\",\"Time\":\"Not started\",\"Location\":\"Trapichão\",\"HomeTeamYellowCardDetails\":null,\"AwayTeamYellowCardDetails\":null,\"HomeTeamRedCardDetails\":null,\"AwayTeamRedCardDetails\":null,\"HasBeenRescheduled\":\"true\"},{\"Id\":\"362551\",\"Date\":\"2016-06-25T19:30:00+00:00\",\"League\":\"Brasileirão Série B\",\"Round\":\"12\",\"HomeTeam\":\"Ceara\",\"HomeTeam_Id\":\"1209\",\"HomeGoals\":\"0\",\"AwayTeam\":\"Nautico\",\"AwayTeam_Id\":\"744\",\"AwayGoals\":\"0\",\"Time\":\"Not started\",\"Location\":\"Estádio Presidente Vargas (Ceará)\",\"HomeTeamYellowCardDetails\":null,\"AwayTeamYellowCardDetails\":null,\"HomeTeamRedCardDetails\":null,\"AwayTeamRedCardDetails\":null,\"HasBeenRescheduled\":\"true\"},{\"Id\":\"362558\",\"Date\":\"2016-06-25T19:00:00+00:00\",\"League\":\"Brasileirão Série B\",\"Round\":\"12\",\"HomeTeam\":\"Vila Nova\",\"HomeTeam_Id\":\"1199\",\"HomeGoals\":\"0\",\"AwayTeam\":\"Goias\",\"AwayTeam_Id\":\"750\",\"AwayGoals\":\"0\",\"Time\":\"Not started\",\"Location\":\"Serra Dourada\",\"HomeTeamYellowCardDetails\":null,\"AwayTeamYellowCardDetails\":null,\"HomeTeamRedCardDetails\":null,\"AwayTeamRedCardDetails\":null,\"HasBeenRescheduled\":\"true\"},{\"Id\":\"362554\",\"Date\":\"2016-06-25T19:00:00+00:00\",\"League\":\"Brasileirão Série B\",\"Round\":\"12\",\"HomeTeam\":\"Parana Clube\",\"HomeTeam_Id\":\"1206\",\"HomeGoals\":\"0\",\"AwayTeam\":\"Joinville\",\"AwayTeam_Id\":\"1208\",\"AwayGoals\":\"0\",\"Time\":\"Not started\",\"Location\":\"Estádio Vila Capanema\",\"HomeTeamYellowCardDetails\":null,\"AwayTeamYellowCardDetails\":null,\"HomeTeamRedCardDetails\":null,\"AwayTeamRedCardDetails\":null,\"HasBeenRescheduled\":\"true\"},{\"Id\":\"362559\",\"Date\":\"2016-06-25T00:30:00+00:00\",\"League\":\"Brasileirão Série B\",\"Round\":\"12\",\"HomeTeam\":\"Luverdense\",\"HomeTeam_Id\":\"1213\",\"HomeGoals\":\"2\",\"AwayTeam\":\"Londrina EC\",\"AwayTeam_Id\":\"4718\",\"AwayGoals\":\"1\",\"Time\":\"Finished\",\"Location\":\"Estadio Passo das Emas\",\"HomeTeamYellowCardDetails\":null,\"AwayTeamYellowCardDetails\":null,\"HomeTeamRedCardDetails\":null,\"AwayTeamRedCardDetails\":null,\"HasBeenRescheduled\":\"true\"},{\"Id\":\"362552\",\"Date\":\"2016-06-25T00:30:00+00:00\",\"League\":\"Brasileirão Série B\",\"Round\":\"12\",\"HomeTeam\":\"Brasil de Pelotas\",\"HomeTeam_Id\":\"4719\",\"HomeGoals\":\"2\",\"AwayTeam\":\"Bahia\",\"AwayTeam_Id\":\"748\",\"AwayGoals\":\"1\",\"Time\":\"Finished\",\"Location\":\"Bento Freitas, Pelotas\",\"HomeTeamYellowCardDetails\":null,\"AwayTeamYellowCardDetails\":null,\"HomeTeamRedCardDetails\":null,\"AwayTeamRedCardDetails\":null,\"HasBeenRescheduled\":\"true\"},{\"Id\":\"362556\",\"Date\":\"2016-06-24T22:15:00+00:00\",\"League\":\"Brasileirão Série B\",\"Round\":\"12\",\"HomeTeam\":\"Criciuma\",\"HomeTeam_Id\":\"747\",\"HomeGoals\":\"1\",\"AwayTeam\":\"Bragantino\",\"AwayTeam_Id\":\"1201\",\"AwayGoals\":\"1\",\"Time\":\"Finished\",\"Location\":\"Heriberto Hülse\",\"HomeTeamYellowCardDetails\":null,\"AwayTeamYellowCardDetails\":\"90': Eder Lima;\",\"HomeTeamRedCardDetails\":\"86': ;\",\"AwayTeamRedCardDetails\":\"90': Eder Lima;87': Edson Sitta;\",\"HasBeenRescheduled\":\"true\"},{\"Id\":\"362555\",\"Date\":\"2016-06-24T22:15:00+00:00\",\"League\":\"Brasileirão Série B\",\"Round\":\"12\",\"HomeTeam\":\"Paysandu\",\"HomeTeam_Id\":\"1293\",\"HomeGoals\":\"0\",\"AwayTeam\":\"Atletico GO\",\"AwayTeam_Id\":\"1202\",\"AwayGoals\":\"0\",\"Time\":\"Finished\",\"Location\":\"Curuzú\",\"HomeTeamYellowCardDetails\":null,\"AwayTeamYellowCardDetails\":null,\"HomeTeamRedCardDetails\":null,\"AwayTeamRedCardDetails\":\"44': Gilsinho;\",\"HasBeenRescheduled\":\"true\"}]}",
    "expire": "1466850663630"
}