{
    "value": "{\"source\":\"fastestlivescores\",\"data\":{\"matchevents\":[{\"assistingPlayer\":null,\"ownGoal\":false,\"scoringSide\":\"H\",\"dbid\":148026,\"homeTeam\":{\"shirtUrl\":\"https://static.crowdscores.com/kits/default.svg\",\"name\":\"Club Guaraní\",\"dbid\":1364,\"flagUrl\":\"https://static.crowdscores.com/flags/default.png\",\"isNational\":false,\"badgeUrl\":\"https://static.crowdscores.com/badges/default.svg\",\"shortName\":\"Guaraní\",\"shortCode\":\"GUA\"},\"matchId\":65479,\"scoringPlayer\":{\"position\":\"MF\",\"shortName\":\"Palau\",\"number\":8,\"name\":\"Marcelo Palau\",\"dbid\":39067},\"awayTeam\":{\"shirtUrl\":\"https://static.crowdscores.com/kits/default.svg\",\"name\":\"Club Rubio Ñu\",\"dbid\":2663,\"flagUrl\":\"https://static.crowdscores.com/flags/default.png\",\"isNational\":false,\"badgeUrl\":\"https://static.crowdscores.com/badges/default.svg\",\"shortName\":\"Rubio Ñu\",\"shortCode\":\"CRN\"},\"awayGoals\":0,\"penalty\":null,\"matchTime\":{\"state\":3,\"minutes\":62,\"extra\":null},\"happenedAt\":1468016460000,\"matchTimeString\":\"62'\",\"homeGoals\":1,\"report\":false,\"competitionId\":\"205\",\"type\":\"goal\",\"round\":{\"dbid\":1031,\"hasLeagueTable\":true,\"name\":\"Clausura\"}},{\"awayTeam\":{\"shirtUrl\":\"https://static.crowdscores.com/kits/default.svg\",\"name\":\"Club Rubio Ñu\",\"dbid\":2663,\"flagUrl\":\"https://static.crowdscores.com/flags/default.png\",\"isNational\":false,\"badgeUrl\":\"https://static.crowdscores.com/badges/default.svg\",\"shortName\":\"Rubio Ñu\",\"shortCode\":\"CRN\"},\"dbid\":195861,\"homeTeam\":{\"shirtUrl\":\"https://static.crowdscores.com/kits/default.svg\",\"name\":\"Club Guaraní\",\"dbid\":1364,\"flagUrl\":\"https://static.crowdscores.com/flags/default.png\",\"isNational\":false,\"badgeUrl\":\"https://static.crowdscores.com/badges/default.svg\",\"shortName\":\"Guaraní\",\"shortCode\":\"GUA\"},\"matchId\":65479,\"homeGoals\":1,\"awayGoals\":0,\"matchTime\":{\"state\":3,\"minutes\":90,\"extra\":2},\"happenedAt\":1468018283000,\"matchTimeString\":\"90+2'\",\"stateCode\":9,\"report\":false,\"competitionId\":\"205\",\"type\":\"state\",\"round\":{\"dbid\":1031,\"hasLeagueTable\":true,\"name\":\"Clausura\"}},{\"awayTeam\":{\"shirtUrl\":\"https://static.crowdscores.com/kits/default.svg\",\"name\":\"Club Rubio Ñu\",\"dbid\":2663,\"flagUrl\":\"https://static.crowdscores.com/flags/default.png\",\"isNational\":false,\"badgeUrl\":\"https://static.crowdscores.com/badges/default.svg\",\"shortName\":\"Rubio Ñu\",\"shortCode\":\"CRN\"},\"dbid\":195858,\"homeTeam\":{\"shirtUrl\":\"https://static.crowdscores.com/kits/default.svg\",\"name\":\"Club Guaraní\",\"dbid\":1364,\"flagUrl\":\"https://static.crowdscores.com/flags/default.png\",\"isNational\":false,\"badgeUrl\":\"https://static.crowdscores.com/badges/default.svg\",\"shortName\":\"Guaraní\",\"shortCode\":\"GUA\"},\"matchId\":65479,\"homeGoals\":0,\"awayGoals\":0,\"matchTime\":{\"state\":3,\"minutes\":46,\"extra\":null},\"happenedAt\":1468015480000,\"matchTimeString\":\"46'\",\"stateCode\":3,\"report\":false,\"competitionId\":\"205\",\"type\":\"state\",\"round\":{\"dbid\":1031,\"hasLeagueTable\":true,\"name\":\"Clausura\"}},{\"awayTeam\":{\"shirtUrl\":\"https://static.crowdscores.com/kits/default.svg\",\"name\":\"Club Rubio Ñu\",\"dbid\":2663,\"flagUrl\":\"https://static.crowdscores.com/flags/default.png\",\"isNational\":false,\"badgeUrl\":\"https://static.crowdscores.com/badges/default.svg\",\"shortName\":\"Rubio Ñu\",\"shortCode\":\"CRN\"},\"dbid\":195857,\"homeTeam\":{\"shirtUrl\":\"https://static.crowdscores.com/kits/default.svg\",\"name\":\"Club Guaraní\",\"dbid\":1364,\"flagUrl\":\"https://static.crowdscores.com/flags/default.png\",\"isNational\":false,\"badgeUrl\":\"https://static.crowdscores.com/badges/default.svg\",\"shortName\":\"Guaraní\",\"shortCode\":\"GUA\"},\"matchId\":65479,\"homeGoals\":0,\"awayGoals\":0,\"matchTime\":{\"state\":1,\"minutes\":45,\"extra\":2},\"happenedAt\":1468014408000,\"matchTimeString\":\"45+2'\",\"stateCode\":2,\"report\":false,\"competitionId\":\"205\",\"type\":\"state\",\"round\":{\"dbid\":1031,\"hasLeagueTable\":true,\"name\":\"Clausura\"}},{\"awayTeam\":{\"shirtUrl\":\"https://static.crowdscores.com/kits/default.svg\",\"name\":\"Club Rubio Ñu\",\"dbid\":2663,\"flagUrl\":\"https://static.crowdscores.com/flags/default.png\",\"isNational\":false,\"badgeUrl\":\"https://static.crowdscores.com/badges/default.svg\",\"shortName\":\"Rubio Ñu\",\"shortCode\":\"CRN\"},\"dbid\":195855,\"homeTeam\":{\"shirtUrl\":\"https://static.crowdscores.com/kits/default.svg\",\"name\":\"Club Guaraní\",\"dbid\":1364,\"flagUrl\":\"https://static.crowdscores.com/flags/default.png\",\"isNational\":false,\"badgeUrl\":\"https://static.crowdscores.com/badges/default.svg\",\"shortName\":\"Guaraní\",\"shortCode\":\"GUA\"},\"matchId\":65479,\"homeGoals\":0,\"awayGoals\":0,\"matchTime\":{\"state\":1,\"minutes\":1,\"extra\":null},\"happenedAt\":1468011645000,\"matchTimeString\":\"1'\",\"stateCode\":1,\"report\":false,\"competitionId\":\"205\",\"type\":\"state\",\"round\":{\"dbid\":1031,\"hasLeagueTable\":true,\"name\":\"Clausura\"}}],\"competition\":{\"ordering\":14600,\"dbid\":205,\"name\":\"Primera División\",\"flagUrl\":\"https://static.crowdscores.com/flags/paraguay.png\"},\"nextState\":null,\"currentStateStart\":1468018283000,\"dbid\":65479,\"aggregateScore\":null,\"awayGoals\":0,\"start\":1468011600000,\"homeGoals\":1,\"extraTimeHasHappened\":false,\"linesOfText\":[],\"season\":{\"dbid\":11,\"end\":1483225200000,\"name\":\"2016\",\"start\":1451610000000},\"homeTeam\":{\"shirtUrl\":\"https://static.crowdscores.com/kits/default.svg\",\"name\":\"Club Guaraní\",\"dbid\":1364,\"flagUrl\":\"https://static.crowdscores.com/flags/default.png\",\"isNational\":false,\"badgeUrl\":\"https://static.crowdscores.com/badges/default.svg\",\"shortName\":\"Guaraní\",\"shortCode\":\"GUA\"},\"awayPlayers\":[{\"name\":\"Gustavo Villamayor\",\"dbid\":53976,\"number\":5,\"position\":\"DF\",\"shortName\":\"Villamayor\",\"squadRole\":\"\"},{\"name\":\"Matías Pérez\",\"dbid\":23299,\"number\":null,\"position\":\"DF\",\"shortName\":\"Pérez\",\"squadRole\":\"\"},{\"name\":\"Merardo Robles\",\"dbid\":56638,\"number\":null,\"position\":\"DF\",\"shortName\":\"Robles\",\"squadRole\":\"\"},{\"name\":\"Ismael Roa\",\"dbid\":53858,\"number\":null,\"position\":\"DF\",\"shortName\":\"Roa\",\"squadRole\":\"\"},{\"name\":\"Teodoro Paredes\",\"dbid\":53960,\"number\":2,\"position\":\"DF\",\"shortName\":\"Paredes\",\"squadRole\":\"\"},{\"name\":\"Denis Caniza\",\"dbid\":53842,\"number\":null,\"position\":\"DF\",\"shortName\":\"Caniza\",\"squadRole\":\"\"},{\"name\":\"Celso Ferreira\",\"dbid\":53846,\"number\":null,\"position\":\"DF\",\"shortName\":\"Ferreira\",\"squadRole\":\"\"},{\"name\":\"Julio Domínguez\",\"dbid\":46987,\"number\":4,\"position\":\"DF\",\"shortName\":\"Domínguez\",\"squadRole\":\"\"},{\"name\":\"Gustavo Velázquez\",\"dbid\":60129,\"number\":13,\"position\":\"DF\",\"shortName\":\"Velázquez\",\"squadRole\":\"\"},{\"name\":\"Julio Manzur\",\"dbid\":56485,\"number\":null,\"position\":\"DF\",\"shortName\":\"Manzur\",\"squadRole\":\"\"},{\"name\":\"Santiago Irala\",\"dbid\":65972,\"number\":17,\"position\":\"FW\",\"shortName\":\"Irala\",\"squadRole\":\"\"},{\"name\":\"Fabio Escobar\",\"dbid\":56637,\"number\":9,\"position\":\"FW\",\"shortName\":\"Escobar\",\"squadRole\":\"\"},{\"name\":\"Cristian Santacruz\",\"dbid\":53864,\"number\":null,\"position\":\"FW\",\"shortName\":\"Santacruz\",\"squadRole\":\"\"},{\"name\":\"Diego Centurión\",\"dbid\":53912,\"number\":null,\"position\":\"FW\",\"shortName\":\"Centurión\",\"squadRole\":\"\"},{\"name\":\"Nelson Romero\",\"dbid\":38891,\"number\":16,\"position\":\"FW\",\"shortName\":\"Romero\",\"squadRole\":\"\"},{\"name\":\"Pedro Godoy\",\"dbid\":53911,\"number\":null,\"position\":\"FW\",\"shortName\":\"Godoy\",\"squadRole\":\"\"},{\"name\":\"Tobías Vargas\",\"dbid\":53791,\"number\":1,\"position\":\"GK\",\"shortName\":\"Vargas\",\"squadRole\":\"\"},{\"name\":\"Carlos Gamarra\",\"dbid\":53957,\"number\":25,\"position\":\"GK\",\"shortName\":\"Gamarra\",\"squadRole\":\"\"},{\"name\":\"Alex Garay\",\"dbid\":53853,\"number\":null,\"position\":\"MF\",\"shortName\":\"Garay\",\"squadRole\":\"\"},{\"name\":\"Marcos Acosta\",\"dbid\":53971,\"number\":3,\"position\":\"MF\",\"shortName\":\"Acosta\",\"squadRole\":\"\"},{\"name\":\"Diego Figueredo\",\"dbid\":53852,\"number\":null,\"position\":\"MF\",\"shortName\":\"Figueredo\",\"squadRole\":\"\"},{\"name\":\"Victor Gómez\",\"dbid\":53860,\"number\":null,\"position\":\"MF\",\"shortName\":\"Gómez\",\"squadRole\":\"\"},{\"name\":\"Juan Franco\",\"dbid\":53943,\"number\":15,\"position\":\"MF\",\"shortName\":\"Franco\",\"squadRole\":\"\"},{\"name\":\"Diego Godoy\",\"dbid\":53952,\"number\":11,\"position\":\"MF\",\"shortName\":\"Godoy\",\"squadRole\":\"\"},{\"name\":\"Juan Núñez\",\"dbid\":57482,\"number\":14,\"position\":\"MF\",\"shortName\":\"Núñez\",\"squadRole\":\"\"},{\"name\":\"Hugo Lusardi\",\"dbid\":53922,\"number\":10,\"position\":\"MF\",\"shortName\":\"Lusardi\",\"squadRole\":\"\"},{\"name\":\"Gustavo Viera\",\"dbid\":53859,\"number\":null,\"position\":\"MF\",\"shortName\":\"Viera\",\"squadRole\":\"\"},{\"name\":\"Claudio Estigarribia\",\"dbid\":53844,\"number\":null,\"position\":\"MF\",\"shortName\":\"Estigarribia\",\"squadRole\":\"\"},{\"name\":\"Carlos Florenciañez\",\"dbid\":57861,\"number\":null,\"position\":\"MF\",\"shortName\":\"Florenciañez\",\"squadRole\":\"\"}],\"dismissals\":{\"home\":0,\"away\":0},\"penaltyShootout\":{},\"isResult\":true,\"goToExtraTime\":false,\"venue\":null,\"limitedCoverage\":false,\"awayTeam\":{\"shirtUrl\":\"https://static.crowdscores.com/kits/default.svg\",\"name\":\"Club Rubio Ñu\",\"dbid\":2663,\"flagUrl\":\"https://static.crowdscores.com/flags/default.png\",\"isNational\":false,\"badgeUrl\":\"https://static.crowdscores.com/badges/default.svg\",\"shortName\":\"Rubio Ñu\",\"shortCode\":\"CRN\"},\"currentState\":9,\"outcome\":{\"winner\":\"home\",\"type\":\"simple\",\"afterExtraTime\":false},\"round\":{\"dbid\":1031,\"hasLeagueTable\":true,\"name\":\"Clausura\"},\"homePlayers\":[{\"name\":\"Eric Cristaldo\",\"dbid\":39078,\"number\":23,\"position\":\"DF\",\"shortName\":\"Cristaldo\",\"squadRole\":\"\"},{\"name\":\"Nicolas Riquelme\",\"dbid\":68092,\"number\":null,\"position\":\"DF\",\"shortName\":\"Riquelme\",\"squadRole\":\"\"},{\"name\":\"Óscar Velázquez\",\"dbid\":39083,\"number\":3,\"position\":\"DF\",\"shortName\":\"Velázquez\",\"squadRole\":\"\"},{\"name\":\"Julio César Cáceres\",\"dbid\":39065,\"number\":5,\"position\":\"DF\",\"shortName\":\"Cáceres\",\"squadRole\":\"\"},{\"name\":\"Luis Cabral\",\"dbid\":39077,\"number\":18,\"position\":\"DF\",\"shortName\":\"Cabral\",\"squadRole\":\"\"},{\"name\":\"Armando Ruiz Díaz\",\"dbid\":68091,\"number\":null,\"position\":\"DF\",\"shortName\":\"\",\"squadRole\":\"\"},{\"name\":\"Carlos Rolón\",\"dbid\":57483,\"number\":null,\"position\":\"DF\",\"shortName\":\"Rolón\",\"squadRole\":\"\"},{\"name\":\"Tomás Bartomeus\",\"dbid\":39073,\"number\":14,\"position\":\"DF\",\"shortName\":\"Bartomeus\",\"squadRole\":\"\"},{\"name\":\"Édgar Aranda\",\"dbid\":39072,\"number\":13,\"position\":\"DF\",\"shortName\":\"Aranda\",\"squadRole\":\"\"},{\"name\":\"Eduardo Filippini\",\"dbid\":39064,\"number\":4,\"position\":\"DF\",\"shortName\":\"Filippini\",\"squadRole\":\"\"},{\"name\":\"Reinaldo Silva\",\"dbid\":68093,\"number\":null,\"position\":\"DF\",\"shortName\":\"Silva\",\"squadRole\":\"\"},{\"name\":\"Rodrigo Bogarín\",\"dbid\":68089,\"number\":11,\"position\":\"FW\",\"shortName\":\"Bogarín\",\"squadRole\":\"\"},{\"name\":\"Alex Cáceres\",\"dbid\":60067,\"number\":29,\"position\":\"FW\",\"shortName\":\"Cáceres\",\"squadRole\":\"\"},{\"name\":\"Críspulo Peña\",\"dbid\":68101,\"number\":null,\"position\":\"FW\",\"shortName\":\"Peña\",\"squadRole\":\"\"},{\"name\":\"Enrique Borja\",\"dbid\":53954,\"number\":null,\"position\":\"FW\",\"shortName\":\"Borja\",\"squadRole\":\"\"},{\"name\":\"Hernán Rodrigo López\",\"dbid\":38882,\"number\":9,\"position\":\"FW\",\"shortName\":\"López\",\"squadRole\":\"\"},{\"name\":\"Nery Cardozo\",\"dbid\":56067,\"number\":null,\"position\":\"FW\",\"shortName\":\"Cardozo\",\"squadRole\":\"\"},{\"name\":\"Ever Caballero\",\"dbid\":53892,\"number\":1,\"position\":\"GK\",\"shortName\":\"Caballero\",\"squadRole\":\"\"},{\"name\":\"Antonio Franco\",\"dbid\":63210,\"number\":1,\"position\":\"GK\",\"shortName\":\"Franco\",\"squadRole\":\"\"},{\"name\":\"Alfredo Aguilar\",\"dbid\":39081,\"number\":12,\"position\":\"GK\",\"shortName\":\"Aguilar\",\"squadRole\":\"\"},{\"name\":\"Alejandro Bogado\",\"dbid\":39062,\"number\":25,\"position\":\"GK\",\"shortName\":\"Bogado\",\"squadRole\":\"\"},{\"name\":\"Alberto Contrera\",\"dbid\":57860,\"number\":16,\"position\":\"MF\",\"shortName\":\"Contrera\",\"squadRole\":\"\"},{\"name\":\"Sergio Mendoza\",\"dbid\":39082,\"number\":27,\"position\":\"MF\",\"shortName\":\"Mendoza\",\"squadRole\":\"\"},{\"name\":\"Ramón Martínez\",\"dbid\":68095,\"number\":null,\"position\":\"MF\",\"shortName\":\"Martínez\",\"squadRole\":\"\"},{\"name\":\"Rafael Benítez\",\"dbid\":68100,\"number\":null,\"position\":\"MF\",\"shortName\":\"Benítez\",\"squadRole\":\"\"},{\"name\":\"Néstor Camacho\",\"dbid\":53891,\"number\":7,\"position\":\"MF\",\"shortName\":\"Camacho\",\"squadRole\":\"\"},{\"name\":\"Marcelo Paredes\",\"dbid\":68099,\"number\":null,\"position\":\"MF\",\"shortName\":\"Paredes\",\"squadRole\":\"\"},{\"name\":\"Marcelo Palau\",\"dbid\":39067,\"number\":8,\"position\":\"MF\",\"shortName\":\"Palau\",\"squadRole\":\"\"},{\"name\":\"Marcelo González\",\"dbid\":68094,\"number\":26,\"position\":\"MF\",\"shortName\":\"González\",\"squadRole\":\"\"},{\"name\":\"Luis González\",\"dbid\":68098,\"number\":null,\"position\":\"MF\",\"shortName\":\"González\",\"squadRole\":\"\"},{\"name\":\"Luis de la Cruz\",\"dbid\":39076,\"number\":17,\"position\":\"MF\",\"shortName\":\"de la Cruz\",\"squadRole\":\"\"},{\"name\":\"Juan Aguilar\",\"dbid\":39079,\"number\":20,\"position\":\"MF\",\"shortName\":\"Aguilar\",\"squadRole\":\"\"},{\"name\":\"José Florentín\",\"dbid\":68096,\"number\":null,\"position\":\"MF\",\"shortName\":\"Florentín\",\"squadRole\":\"\"},{\"name\":\"Jorge Morel\",\"dbid\":65278,\"number\":21,\"position\":\"MF\",\"shortName\":\"Morel\",\"squadRole\":\"\"},{\"name\":\"Jorge González\",\"dbid\":38897,\"number\":null,\"position\":\"MF\",\"shortName\":\"González\",\"squadRole\":\"\"},{\"name\":\"Iván González\",\"dbid\":39069,\"number\":6,\"position\":\"MF\",\"shortName\":\"González\",\"squadRole\":\"\"},{\"name\":\"Darío Ocampo\",\"dbid\":39074,\"number\":15,\"position\":\"MF\",\"shortName\":\"Ocampo\",\"squadRole\":\"\"},{\"name\":\"Christian Palacios\",\"dbid\":68097,\"number\":null,\"position\":\"MF\",\"shortName\":\"Palacios\",\"squadRole\":\"\"}]}}",
    "expire": "1468076361654"
}