{
    "value": "{\"source\":\"fastestlivescores\",\"data\":{\"matchevents\":[{\"assistingPlayer\":{\"position\":\"MF\",\"shortName\":\"Hoolahan\",\"number\":14,\"name\":\"Wes Hoolahan\",\"dbid\":17647},\"ownGoal\":false,\"scoringSide\":\"A\",\"dbid\":145735,\"homeTeam\":{\"shirtUrl\":\"https://static.crowdscores.com/kits/italy-home.svg\",\"name\":\"Italy\",\"dbid\":417,\"flagUrl\":\"https://static.crowdscores.com/flags/italy.png\",\"isNational\":true,\"badgeUrl\":\"https://static.crowdscores.com/badges/default.svg\",\"shortName\":\"Italy\",\"shortCode\":\"ITA\"},\"matchId\":47671,\"scoringPlayer\":{\"position\":\"MF\",\"shortName\":\"Brady\",\"number\":12,\"name\":\"Robbie Brady\",\"dbid\":17680},\"awayTeam\":{\"shirtUrl\":\"https://static.crowdscores.com/kits/default.svg\",\"name\":\"Republic of Ireland\",\"dbid\":421,\"flagUrl\":\"https://static.crowdscores.com/flags/ireland.png\",\"isNational\":true,\"badgeUrl\":\"https://static.crowdscores.com/badges/default.svg\",\"shortName\":\"Ireland\",\"shortCode\":\"ROI\"},\"awayGoals\":1,\"penalty\":false,\"matchTime\":{\"state\":3,\"minutes\":83,\"extra\":null},\"happenedAt\":1466628099051.215,\"matchTimeString\":\"83'\",\"homeGoals\":0,\"report\":false,\"competitionId\":\"267\",\"type\":\"goal\",\"round\":{\"dbid\":737,\"hasLeagueTable\":true,\"name\":\"Group E\"}},{\"awayTeam\":{\"shirtUrl\":\"https://static.crowdscores.com/kits/default.svg\",\"name\":\"Republic of Ireland\",\"dbid\":421,\"flagUrl\":\"https://static.crowdscores.com/flags/ireland.png\",\"isNational\":true,\"badgeUrl\":\"https://static.crowdscores.com/badges/default.svg\",\"shortName\":\"Ireland\",\"shortCode\":\"ROI\"},\"dbid\":192364,\"homeTeam\":{\"shirtUrl\":\"https://static.crowdscores.com/kits/italy-home.svg\",\"name\":\"Italy\",\"dbid\":417,\"flagUrl\":\"https://static.crowdscores.com/flags/italy.png\",\"isNational\":true,\"badgeUrl\":\"https://static.crowdscores.com/badges/default.svg\",\"shortName\":\"Italy\",\"shortCode\":\"ITA\"},\"matchId\":47671,\"homeGoals\":0,\"awayGoals\":1,\"matchTime\":{\"state\":3,\"minutes\":90,\"extra\":2},\"happenedAt\":1466628631118.754,\"matchTimeString\":\"90+2'\",\"stateCode\":9,\"report\":false,\"competitionId\":\"267\",\"type\":\"state\",\"round\":{\"dbid\":737,\"hasLeagueTable\":true,\"name\":\"Group E\"}},{\"awayTeam\":{\"shirtUrl\":\"https://static.crowdscores.com/kits/default.svg\",\"name\":\"Republic of Ireland\",\"dbid\":421,\"flagUrl\":\"https://static.crowdscores.com/flags/ireland.png\",\"isNational\":true,\"badgeUrl\":\"https://static.crowdscores.com/badges/default.svg\",\"shortName\":\"Ireland\",\"shortCode\":\"ROI\"},\"dbid\":192361,\"homeTeam\":{\"shirtUrl\":\"https://static.crowdscores.com/kits/italy-home.svg\",\"name\":\"Italy\",\"dbid\":417,\"flagUrl\":\"https://static.crowdscores.com/flags/italy.png\",\"isNational\":true,\"badgeUrl\":\"https://static.crowdscores.com/badges/default.svg\",\"shortName\":\"Italy\",\"shortCode\":\"ITA\"},\"matchId\":47671,\"homeGoals\":0,\"awayGoals\":0,\"matchTime\":{\"state\":3,\"minutes\":46,\"extra\":null},\"happenedAt\":1466625869000,\"matchTimeString\":\"46'\",\"stateCode\":3,\"report\":false,\"competitionId\":\"267\",\"type\":\"state\",\"round\":{\"dbid\":737,\"hasLeagueTable\":true,\"name\":\"Group E\"}},{\"awayTeam\":{\"shirtUrl\":\"https://static.crowdscores.com/kits/default.svg\",\"name\":\"Republic of Ireland\",\"dbid\":421,\"flagUrl\":\"https://static.crowdscores.com/flags/ireland.png\",\"isNational\":true,\"badgeUrl\":\"https://static.crowdscores.com/badges/default.svg\",\"shortName\":\"Ireland\",\"shortCode\":\"ROI\"},\"dbid\":192359,\"homeTeam\":{\"shirtUrl\":\"https://static.crowdscores.com/kits/italy-home.svg\",\"name\":\"Italy\",\"dbid\":417,\"flagUrl\":\"https://static.crowdscores.com/flags/italy.png\",\"isNational\":true,\"badgeUrl\":\"https://static.crowdscores.com/badges/default.svg\",\"shortName\":\"Italy\",\"shortCode\":\"ITA\"},\"matchId\":47671,\"homeGoals\":0,\"awayGoals\":0,\"matchTime\":{\"state\":1,\"minutes\":45,\"extra\":2},\"happenedAt\":1466624833000,\"matchTimeString\":\"45+2'\",\"stateCode\":2,\"report\":false,\"competitionId\":\"267\",\"type\":\"state\",\"round\":{\"dbid\":737,\"hasLeagueTable\":true,\"name\":\"Group E\"}},{\"awayTeam\":{\"shirtUrl\":\"https://static.crowdscores.com/kits/default.svg\",\"name\":\"Republic of Ireland\",\"dbid\":421,\"flagUrl\":\"https://static.crowdscores.com/flags/ireland.png\",\"isNational\":true,\"badgeUrl\":\"https://static.crowdscores.com/badges/default.svg\",\"shortName\":\"Ireland\",\"shortCode\":\"ROI\"},\"dbid\":192355,\"homeTeam\":{\"shirtUrl\":\"https://static.crowdscores.com/kits/italy-home.svg\",\"name\":\"Italy\",\"dbid\":417,\"flagUrl\":\"https://static.crowdscores.com/flags/italy.png\",\"isNational\":true,\"badgeUrl\":\"https://static.crowdscores.com/badges/default.svg\",\"shortName\":\"Italy\",\"shortCode\":\"ITA\"},\"matchId\":47671,\"homeGoals\":0,\"awayGoals\":0,\"matchTime\":{\"state\":1,\"minutes\":1,\"extra\":null},\"happenedAt\":1466622056654.544,\"matchTimeString\":\"1'\",\"stateCode\":1,\"report\":false,\"competitionId\":\"267\",\"type\":\"state\",\"round\":{\"dbid\":737,\"hasLeagueTable\":true,\"name\":\"Group E\"}},{\"matchTime\":{\"state\":3,\"minutes\":89,\"extra\":null},\"dbid\":39501,\"homeTeam\":{\"shirtUrl\":\"https://static.crowdscores.com/kits/italy-home.svg\",\"name\":\"Italy\",\"dbid\":417,\"flagUrl\":\"https://static.crowdscores.com/flags/italy.png\",\"isNational\":true,\"badgeUrl\":\"https://static.crowdscores.com/badges/default.svg\",\"shortName\":\"Italy\",\"shortCode\":\"ITA\"},\"matchId\":47671,\"cardType\":\"first-yellow\",\"matchPlayer\":2415930,\"player\":{\"position\":\"FW\",\"shortName\":\"Insigne\",\"number\":24,\"name\":\"Lorenzo Insigne\",\"dbid\":18357},\"happenedAt\":1466628487886.446,\"matchTimeString\":\"89'\",\"awayTeam\":{\"shirtUrl\":\"https://static.crowdscores.com/kits/default.svg\",\"name\":\"Republic of Ireland\",\"dbid\":421,\"flagUrl\":\"https://static.crowdscores.com/flags/ireland.png\",\"isNational\":true,\"badgeUrl\":\"https://static.crowdscores.com/badges/default.svg\",\"shortName\":\"Ireland\",\"shortCode\":\"ROI\"},\"competitionId\":\"267\",\"type\":\"card\",\"round\":{\"dbid\":737,\"hasLeagueTable\":true,\"name\":\"Group E\"},\"side\":\"H\"},{\"matchTime\":{\"state\":3,\"minutes\":84,\"extra\":null},\"dbid\":39500,\"homeTeam\":{\"shirtUrl\":\"https://static.crowdscores.com/kits/italy-home.svg\",\"name\":\"Italy\",\"dbid\":417,\"flagUrl\":\"https://static.crowdscores.com/flags/italy.png\",\"isNational\":true,\"badgeUrl\":\"https://static.crowdscores.com/badges/default.svg\",\"shortName\":\"Italy\",\"shortCode\":\"ITA\"},\"matchId\":47671,\"cardType\":\"first-yellow\",\"matchPlayer\":2415935,\"player\":{\"position\":\"FW\",\"shortName\":\"Zaza\",\"number\":7,\"name\":\"Simone Zaza\",\"dbid\":25110},\"happenedAt\":1466628187886.446,\"matchTimeString\":\"84'\",\"awayTeam\":{\"shirtUrl\":\"https://static.crowdscores.com/kits/default.svg\",\"name\":\"Republic of Ireland\",\"dbid\":421,\"flagUrl\":\"https://static.crowdscores.com/flags/ireland.png\",\"isNational\":true,\"badgeUrl\":\"https://static.crowdscores.com/badges/default.svg\",\"shortName\":\"Ireland\",\"shortCode\":\"ROI\"},\"competitionId\":\"267\",\"type\":\"card\",\"round\":{\"dbid\":737,\"hasLeagueTable\":true,\"name\":\"Group E\"},\"side\":\"H\"},{\"matchTime\":{\"state\":3,\"minutes\":76,\"extra\":null},\"dbid\":39499,\"homeTeam\":{\"shirtUrl\":\"https://static.crowdscores.com/kits/italy-home.svg\",\"name\":\"Italy\",\"dbid\":417,\"flagUrl\":\"https://static.crowdscores.com/flags/italy.png\",\"isNational\":true,\"badgeUrl\":\"https://static.crowdscores.com/badges/default.svg\",\"shortName\":\"Italy\",\"shortCode\":\"ITA\"},\"matchId\":47671,\"cardType\":\"first-yellow\",\"matchPlayer\":2415917,\"player\":{\"position\":\"DF\",\"shortName\":\"Barzagli\",\"number\":15,\"name\":\"Andrea Barzagli\",\"dbid\":18524},\"happenedAt\":1466627707886.446,\"matchTimeString\":\"76'\",\"awayTeam\":{\"shirtUrl\":\"https://static.crowdscores.com/kits/default.svg\",\"name\":\"Republic of Ireland\",\"dbid\":421,\"flagUrl\":\"https://static.crowdscores.com/flags/ireland.png\",\"isNational\":true,\"badgeUrl\":\"https://static.crowdscores.com/badges/default.svg\",\"shortName\":\"Ireland\",\"shortCode\":\"ROI\"},\"competitionId\":\"267\",\"type\":\"card\",\"round\":{\"dbid\":737,\"hasLeagueTable\":true,\"name\":\"Group E\"},\"side\":\"H\"},{\"matchTime\":{\"state\":3,\"minutes\":70,\"extra\":null},\"dbid\":39498,\"homeTeam\":{\"shirtUrl\":\"https://static.crowdscores.com/kits/italy-home.svg\",\"name\":\"Italy\",\"dbid\":417,\"flagUrl\":\"https://static.crowdscores.com/flags/italy.png\",\"isNational\":true,\"badgeUrl\":\"https://static.crowdscores.com/badges/default.svg\",\"shortName\":\"Italy\",\"shortCode\":\"ITA\"},\"matchId\":47671,\"cardType\":\"first-yellow\",\"matchPlayer\":2415960,\"player\":{\"position\":\"DF\",\"shortName\":\"Ward\",\"number\":23,\"name\":\"Stephen Ward\",\"dbid\":21634},\"happenedAt\":1466627347886.446,\"matchTimeString\":\"70'\",\"awayTeam\":{\"shirtUrl\":\"https://static.crowdscores.com/kits/default.svg\",\"name\":\"Republic of Ireland\",\"dbid\":421,\"flagUrl\":\"https://static.crowdscores.com/flags/ireland.png\",\"isNational\":true,\"badgeUrl\":\"https://static.crowdscores.com/badges/default.svg\",\"shortName\":\"Ireland\",\"shortCode\":\"ROI\"},\"competitionId\":\"267\",\"type\":\"card\",\"round\":{\"dbid\":737,\"hasLeagueTable\":true,\"name\":\"Group E\"},\"side\":\"A\"},{\"matchTime\":{\"state\":1,\"minutes\":38,\"extra\":null},\"dbid\":39496,\"homeTeam\":{\"shirtUrl\":\"https://static.crowdscores.com/kits/italy-home.svg\",\"name\":\"Italy\",\"dbid\":417,\"flagUrl\":\"https://static.crowdscores.com/flags/italy.png\",\"isNational\":true,\"badgeUrl\":\"https://static.crowdscores.com/badges/default.svg\",\"shortName\":\"Italy\",\"shortCode\":\"ITA\"},\"matchId\":47671,\"cardType\":\"first-yellow\",\"matchPlayer\":2415957,\"player\":{\"position\":\"FW\",\"shortName\":\"Long\",\"number\":7,\"name\":\"Shane Long\",\"dbid\":17090},\"happenedAt\":1466624324540.299,\"matchTimeString\":\"38'\",\"awayTeam\":{\"shirtUrl\":\"https://static.crowdscores.com/kits/default.svg\",\"name\":\"Republic of Ireland\",\"dbid\":421,\"flagUrl\":\"https://static.crowdscores.com/flags/ireland.png\",\"isNational\":true,\"badgeUrl\":\"https://static.crowdscores.com/badges/default.svg\",\"shortName\":\"Ireland\",\"shortCode\":\"ROI\"},\"competitionId\":\"267\",\"type\":\"card\",\"round\":{\"dbid\":737,\"hasLeagueTable\":true,\"name\":\"Group E\"},\"side\":\"A\"},{\"matchTime\":{\"state\":1,\"minutes\":38,\"extra\":null},\"dbid\":39495,\"homeTeam\":{\"shirtUrl\":\"https://static.crowdscores.com/kits/italy-home.svg\",\"name\":\"Italy\",\"dbid\":417,\"flagUrl\":\"https://static.crowdscores.com/flags/italy.png\",\"isNational\":true,\"badgeUrl\":\"https://static.crowdscores.com/badges/default.svg\",\"shortName\":\"Italy\",\"shortCode\":\"ITA\"},\"matchId\":47671,\"cardType\":\"first-yellow\",\"matchPlayer\":2415934,\"player\":{\"position\":\"GK\",\"shortName\":\"Sirigu\",\"number\":30,\"name\":\"Salvatore Sirigu\",\"dbid\":18556},\"happenedAt\":1466624324540.299,\"matchTimeString\":\"38'\",\"awayTeam\":{\"shirtUrl\":\"https://static.crowdscores.com/kits/default.svg\",\"name\":\"Republic of Ireland\",\"dbid\":421,\"flagUrl\":\"https://static.crowdscores.com/flags/ireland.png\",\"isNational\":true,\"badgeUrl\":\"https://static.crowdscores.com/badges/default.svg\",\"shortName\":\"Ireland\",\"shortCode\":\"ROI\"},\"competitionId\":\"267\",\"type\":\"card\",\"round\":{\"dbid\":737,\"hasLeagueTable\":true,\"name\":\"Group E\"},\"side\":\"H\"},{\"playerOff\":{\"position\":\"FW\",\"shortName\":\"Long\",\"number\":7,\"name\":\"Shane Long\",\"dbid\":17090},\"dbid\":54778,\"homeTeam\":{\"shirtUrl\":\"https://static.crowdscores.com/kits/italy-home.svg\",\"name\":\"Italy\",\"dbid\":417,\"flagUrl\":\"https://static.crowdscores.com/flags/italy.png\",\"isNational\":true,\"badgeUrl\":\"https://static.crowdscores.com/badges/default.svg\",\"shortName\":\"Italy\",\"shortCode\":\"ITA\"},\"matchId\":47671,\"round\":{\"dbid\":737,\"hasLeagueTable\":true,\"name\":\"Group E\"},\"matchTime\":{\"state\":3,\"minutes\":87,\"extra\":null},\"happenedAt\":1466628367886.446,\"matchTimeString\":\"87'\",\"awayTeam\":{\"shirtUrl\":\"https://static.crowdscores.com/kits/default.svg\",\"name\":\"Republic of Ireland\",\"dbid\":421,\"flagUrl\":\"https://static.crowdscores.com/flags/ireland.png\",\"isNational\":true,\"badgeUrl\":\"https://static.crowdscores.com/badges/default.svg\",\"shortName\":\"Ireland\",\"shortCode\":\"ROI\"},\"playerOn\":{\"position\":\"MF\",\"shortName\":\"Quinn\",\"number\":21,\"name\":\"Stephen Quinn\",\"dbid\":17679},\"competitionId\":\"267\",\"type\":\"substitution\",\"side\":\"A\"},{\"playerOff\":{\"position\":\"DF\",\"shortName\":\"De Sciglio\",\"number\":2,\"name\":\"Mattia De Sciglio\",\"dbid\":18035},\"dbid\":54775,\"homeTeam\":{\"shirtUrl\":\"https://static.crowdscores.com/kits/italy-home.svg\",\"name\":\"Italy\",\"dbid\":417,\"flagUrl\":\"https://static.crowdscores.com/flags/italy.png\",\"isNational\":true,\"badgeUrl\":\"https://static.crowdscores.com/badges/default.svg\",\"shortName\":\"Italy\",\"shortCode\":\"ITA\"},\"matchId\":47671,\"round\":{\"dbid\":737,\"hasLeagueTable\":true,\"name\":\"Group E\"},\"matchTime\":{\"state\":3,\"minutes\":79,\"extra\":null},\"happenedAt\":1466627887886.446,\"matchTimeString\":\"79'\",\"awayTeam\":{\"shirtUrl\":\"https://static.crowdscores.com/kits/default.svg\",\"name\":\"Republic of Ireland\",\"dbid\":421,\"flagUrl\":\"https://static.crowdscores.com/flags/ireland.png\",\"isNational\":true,\"badgeUrl\":\"https://static.crowdscores.com/badges/default.svg\",\"shortName\":\"Ireland\",\"shortCode\":\"ROI\"},\"playerOn\":{\"position\":\"FW\",\"shortName\":\"El Shaarawy\",\"number\":22,\"name\":\"Stephan El Shaarawy\",\"dbid\":18061},\"competitionId\":\"267\",\"type\":\"substitution\",\"side\":\"H\"},{\"playerOff\":{\"position\":\"MF\",\"shortName\":\"McCarthy\",\"number\":16,\"name\":\"James McCarthy\",\"dbid\":17360},\"dbid\":54774,\"homeTeam\":{\"shirtUrl\":\"https://static.crowdscores.com/kits/italy-home.svg\",\"name\":\"Italy\",\"dbid\":417,\"flagUrl\":\"https://static.crowdscores.com/flags/italy.png\",\"isNational\":true,\"badgeUrl\":\"https://static.crowdscores.com/badges/default.svg\",\"shortName\":\"Italy\",\"shortCode\":\"ITA\"},\"matchId\":47671,\"round\":{\"dbid\":737,\"hasLeagueTable\":true,\"name\":\"Group E\"},\"matchTime\":{\"state\":3,\"minutes\":74,\"extra\":null},\"happenedAt\":1466627587886.446,\"matchTimeString\":\"74'\",\"awayTeam\":{\"shirtUrl\":\"https://static.crowdscores.com/kits/default.svg\",\"name\":\"Republic of Ireland\",\"dbid\":421,\"flagUrl\":\"https://static.crowdscores.com/flags/ireland.png\",\"isNational\":true,\"badgeUrl\":\"https://static.crowdscores.com/badges/default.svg\",\"shortName\":\"Ireland\",\"shortCode\":\"ROI\"},\"playerOn\":{\"position\":\"MF\",\"shortName\":\"Hoolahan\",\"number\":14,\"name\":\"Wes Hoolahan\",\"dbid\":17647},\"competitionId\":\"267\",\"type\":\"substitution\",\"side\":\"A\"},{\"playerOff\":{\"position\":\"FW\",\"shortName\":\"Immobile\",\"number\":10,\"name\":\"Ciro Immobile\",\"dbid\":22935},\"dbid\":54773,\"homeTeam\":{\"shirtUrl\":\"https://static.crowdscores.com/kits/italy-home.svg\",\"name\":\"Italy\",\"dbid\":417,\"flagUrl\":\"https://static.crowdscores.com/flags/italy.png\",\"isNational\":true,\"badgeUrl\":\"https://static.crowdscores.com/badges/default.svg\",\"shortName\":\"Italy\",\"shortCode\":\"ITA\"},\"matchId\":47671,\"round\":{\"dbid\":737,\"hasLeagueTable\":true,\"name\":\"Group E\"},\"matchTime\":{\"state\":3,\"minutes\":71,\"extra\":null},\"happenedAt\":1466627407886.446,\"matchTimeString\":\"71'\",\"awayTeam\":{\"shirtUrl\":\"https://static.crowdscores.com/kits/default.svg\",\"name\":\"Republic of Ireland\",\"dbid\":421,\"flagUrl\":\"https://static.crowdscores.com/flags/ireland.png\",\"isNational\":true,\"badgeUrl\":\"https://static.crowdscores.com/badges/default.svg\",\"shortName\":\"Ireland\",\"shortCode\":\"ROI\"},\"playerOn\":{\"position\":\"FW\",\"shortName\":\"Insigne\",\"number\":24,\"name\":\"Lorenzo Insigne\",\"dbid\":18357},\"competitionId\":\"267\",\"type\":\"substitution\",\"side\":\"H\"},{\"playerOff\":{\"position\":\"FW\",\"shortName\":\"Murphy\",\"number\":9,\"name\":\"Daryl Murphy\",\"dbid\":21420},\"dbid\":54771,\"homeTeam\":{\"shirtUrl\":\"https://static.crowdscores.com/kits/italy-home.svg\",\"name\":\"Italy\",\"dbid\":417,\"flagUrl\":\"https://static.crowdscores.com/flags/italy.png\",\"isNational\":true,\"badgeUrl\":\"https://static.crowdscores.com/badges/default.svg\",\"shortName\":\"Italy\",\"shortCode\":\"ITA\"},\"matchId\":47671,\"round\":{\"dbid\":737,\"hasLeagueTable\":true,\"name\":\"Group E\"},\"matchTime\":{\"state\":3,\"minutes\":67,\"extra\":null},\"happenedAt\":1466627167886.446,\"matchTimeString\":\"67'\",\"awayTeam\":{\"shirtUrl\":\"https://static.crowdscores.com/kits/default.svg\",\"name\":\"Republic of Ireland\",\"dbid\":421,\"flagUrl\":\"https://static.crowdscores.com/flags/ireland.png\",\"isNational\":true,\"badgeUrl\":\"https://static.crowdscores.com/badges/default.svg\",\"shortName\":\"Ireland\",\"shortCode\":\"ROI\"},\"playerOn\":{\"position\":\"MF\",\"shortName\":\"McGeady\",\"number\":37,\"name\":\"Aiden McGeady\",\"dbid\":19770},\"competitionId\":\"267\",\"type\":\"substitution\",\"side\":\"A\"},{\"playerOff\":{\"position\":\"FW\",\"shortName\":\"Bernardeschi\",\"number\":10,\"name\":\"Federico Bernardeschi\",\"dbid\":27520},\"dbid\":54768,\"homeTeam\":{\"shirtUrl\":\"https://static.crowdscores.com/kits/italy-home.svg\",\"name\":\"Italy\",\"dbid\":417,\"flagUrl\":\"https://static.crowdscores.com/flags/italy.png\",\"isNational\":true,\"badgeUrl\":\"https://static.crowdscores.com/badges/default.svg\",\"shortName\":\"Italy\",\"shortCode\":\"ITA\"},\"matchId\":47671,\"round\":{\"dbid\":737,\"hasLeagueTable\":true,\"name\":\"Group E\"},\"matchTime\":{\"state\":3,\"minutes\":57,\"extra\":null},\"happenedAt\":1466626567886.446,\"matchTimeString\":\"57'\",\"awayTeam\":{\"shirtUrl\":\"https://static.crowdscores.com/kits/default.svg\",\"name\":\"Republic of Ireland\",\"dbid\":421,\"flagUrl\":\"https://static.crowdscores.com/flags/ireland.png\",\"isNational\":true,\"badgeUrl\":\"https://static.crowdscores.com/badges/default.svg\",\"shortName\":\"Ireland\",\"shortCode\":\"ROI\"},\"playerOn\":{\"position\":\"DF\",\"shortName\":\"Darmian\",\"number\":36,\"name\":\"Matteo Darmian\",\"dbid\":22945},\"competitionId\":\"267\",\"type\":\"substitution\",\"side\":\"H\"}],\"competition\":{\"ordering\":4500,\"dbid\":267,\"name\":\"European Championship\",\"flagUrl\":\"https://static.crowdscores.com/flags/uefa.png\"},\"nextState\":null,\"currentStateStart\":1466628631118.754,\"dbid\":47671,\"aggregateScore\":null,\"awayGoals\":1,\"start\":1466622000000,\"homeGoals\":0,\"linesOfText\":[],\"extraTimeHasHappened\":false,\"season\":{\"dbid\":11,\"end\":1483225200000,\"name\":\"2016\",\"start\":1451610000000},\"homeTeam\":{\"shirtUrl\":\"https://static.crowdscores.com/kits/italy-home.svg\",\"name\":\"Italy\",\"dbid\":417,\"flagUrl\":\"https://static.crowdscores.com/flags/italy.png\",\"isNational\":true,\"badgeUrl\":\"https://static.crowdscores.com/badges/default.svg\",\"shortName\":\"Italy\",\"shortCode\":\"ITA\"},\"awayPlayers\":[{\"name\":\"Ciaran Clark\",\"dbid\":17141,\"number\":3,\"position\":\"DF\",\"shortName\":\"Clark\",\"squadRole\":\"sub\"},{\"name\":\"Stephen Ward\",\"dbid\":21634,\"number\":17,\"position\":\"DF\",\"shortName\":\"Ward\",\"squadRole\":\"starting\"},{\"name\":\"Shane Duffy\",\"dbid\":16807,\"number\":12,\"position\":\"DF\",\"shortName\":\"Duffy\",\"squadRole\":\"starting\"},{\"name\":\"Séamus Coleman\",\"dbid\":16796,\"number\":2,\"position\":\"DF\",\"shortName\":\"Coleman\",\"squadRole\":\"starting\"},{\"name\":\"Richard Keogh\",\"dbid\":21231,\"number\":5,\"position\":\"DF\",\"shortName\":\"Keogh\",\"squadRole\":\"starting\"},{\"name\":\"John O'Shea\",\"dbid\":17064,\"number\":4,\"position\":\"DF\",\"shortName\":\"O'Shea\",\"squadRole\":\"sub\"},{\"name\":\"Cyrus Christie\",\"dbid\":19849,\"number\":15,\"position\":\"DF\",\"shortName\":\"Christie\",\"squadRole\":\"sub\"},{\"name\":\"Shane Long\",\"dbid\":17090,\"number\":9,\"position\":\"FW\",\"shortName\":\"Long\",\"squadRole\":\"starting\"},{\"name\":\"Daryl Murphy\",\"dbid\":21420,\"number\":21,\"position\":\"FW\",\"shortName\":\"Murphy\",\"squadRole\":\"starting\"},{\"name\":\"Robbie Keane\",\"dbid\":19772,\"number\":10,\"position\":\"FW\",\"shortName\":\"Keane\",\"squadRole\":\"sub\"},{\"name\":\"Jonathan Walters\",\"dbid\":17125,\"number\":14,\"position\":\"FW\",\"shortName\":\"Walters\",\"squadRole\":\"sub\"},{\"name\":\"Shay Given\",\"dbid\":17160,\"number\":16,\"position\":\"GK\",\"shortName\":\"Given\",\"squadRole\":\"sub\"},{\"name\":\"Darren Randolph\",\"dbid\":17801,\"number\":23,\"position\":\"GK\",\"shortName\":\"Randolph\",\"squadRole\":\"starting\"},{\"name\":\"Keiren Westwood\",\"dbid\":17059,\"number\":1,\"position\":\"GK\",\"shortName\":\"Westwood\",\"squadRole\":\"sub\"},{\"name\":\"Stephen Quinn\",\"dbid\":17679,\"number\":22,\"position\":\"MF\",\"shortName\":\"Quinn\",\"squadRole\":\"sub\"},{\"name\":\"Aiden McGeady\",\"dbid\":19770,\"number\":7,\"position\":\"MF\",\"shortName\":\"McGeady\",\"squadRole\":\"sub\"},{\"name\":\"Wes Hoolahan\",\"dbid\":17647,\"number\":20,\"position\":\"MF\",\"shortName\":\"Hoolahan\",\"squadRole\":\"sub\"},{\"name\":\"David Meyler\",\"dbid\":17681,\"number\":18,\"position\":\"MF\",\"shortName\":\"Meyler\",\"squadRole\":\"sub\"},{\"name\":\"Glenn Whelan\",\"dbid\":17114,\"number\":6,\"position\":\"MF\",\"shortName\":\"Whelan\",\"squadRole\":\"sub\"},{\"name\":\"James McCarthy\",\"dbid\":17360,\"number\":8,\"position\":\"MF\",\"shortName\":\"McCarthy\",\"squadRole\":\"starting\"},{\"name\":\"James McClean\",\"dbid\":17074,\"number\":11,\"position\":\"MF\",\"shortName\":\"McClean\",\"squadRole\":\"starting\"},{\"name\":\"Jeff Hendrick\",\"dbid\":17805,\"number\":13,\"position\":\"MF\",\"shortName\":\"Hendrick\",\"squadRole\":\"starting\"},{\"name\":\"Robbie Brady\",\"dbid\":17680,\"number\":19,\"position\":\"MF\",\"shortName\":\"Brady\",\"squadRole\":\"starting\"}],\"dismissals\":{\"home\":0,\"away\":0},\"penaltyShootout\":{},\"isResult\":true,\"goToExtraTime\":false,\"venue\":{\"dbid\":435,\"capacity\":50186,\"name\":\"Grand stade Lille Métropole\",\"geolocation\":{\"latitude\":50.611944,\"longitude\":3.130556}},\"limitedCoverage\":false,\"awayTeam\":{\"shirtUrl\":\"https://static.crowdscores.com/kits/default.svg\",\"name\":\"Republic of Ireland\",\"dbid\":421,\"flagUrl\":\"https://static.crowdscores.com/flags/ireland.png\",\"isNational\":true,\"badgeUrl\":\"https://static.crowdscores.com/badges/default.svg\",\"shortName\":\"Ireland\",\"shortCode\":\"ROI\"},\"currentState\":9,\"outcome\":{\"winner\":\"away\",\"type\":\"simple\",\"afterExtraTime\":false},\"round\":{\"dbid\":737,\"hasLeagueTable\":true,\"name\":\"Group E\"},\"homePlayers\":[{\"name\":\"Giorgio Chiellini\",\"dbid\":18512,\"number\":3,\"position\":\"DF\",\"shortName\":\"Chiellini\",\"squadRole\":\"sub\"},{\"name\":\"Angelo Ogbonna\",\"dbid\":18514,\"number\":5,\"position\":\"DF\",\"shortName\":\"Ogbonna\",\"squadRole\":\"starting\"},{\"name\":\"Andrea Barzagli\",\"dbid\":18524,\"number\":15,\"position\":\"DF\",\"shortName\":\"Barzagli\",\"squadRole\":\"starting\"},{\"name\":\"Mattia De Sciglio\",\"dbid\":18035,\"number\":2,\"position\":\"DF\",\"shortName\":\"De Sciglio\",\"squadRole\":\"starting\"},{\"name\":\"Leonardo Bonucci\",\"dbid\":18526,\"number\":19,\"position\":\"DF\",\"shortName\":\"Bonucci\",\"squadRole\":\"starting\"},{\"name\":\"Matteo Darmian\",\"dbid\":22945,\"number\":4,\"position\":\"DF\",\"shortName\":\"Darmian\",\"squadRole\":\"sub\"},{\"name\":\"Ciro Immobile\",\"dbid\":22935,\"number\":11,\"position\":\"FW\",\"shortName\":\"Immobile\",\"squadRole\":\"starting\"},{\"name\":\"Stephan El Shaarawy\",\"dbid\":18061,\"number\":22,\"position\":\"FW\",\"shortName\":\"El Shaarawy\",\"squadRole\":\"sub\"},{\"name\":\"Simone Zaza\",\"dbid\":25110,\"number\":7,\"position\":\"FW\",\"shortName\":\"Zaza\",\"squadRole\":\"starting\"},{\"name\":\"Éder\",\"dbid\":23173,\"number\":17,\"position\":\"FW\",\"shortName\":\"Éder\",\"squadRole\":\"sub\"},{\"name\":\"Emanuele Giaccherini\",\"dbid\":17071,\"number\":23,\"position\":\"FW\",\"shortName\":\"Giaccherini\",\"squadRole\":\"sub\"},{\"name\":\"Federico Bernardeschi\",\"dbid\":27520,\"number\":21,\"position\":\"FW\",\"shortName\":\"Bernardeschi\",\"squadRole\":\"starting\"},{\"name\":\"Graziano Pellè\",\"dbid\":27052,\"number\":9,\"position\":\"FW\",\"shortName\":\"Pellè\",\"squadRole\":\"sub\"},{\"name\":\"Lorenzo Insigne\",\"dbid\":18357,\"number\":20,\"position\":\"FW\",\"shortName\":\"Insigne\",\"squadRole\":\"sub\"},{\"name\":\"Salvatore Sirigu\",\"dbid\":18556,\"number\":12,\"position\":\"GK\",\"shortName\":\"Sirigu\",\"squadRole\":\"starting\"},{\"name\":\"Federico Marchetti\",\"dbid\":19673,\"number\":13,\"position\":\"GK\",\"shortName\":\"Marchetti\",\"squadRole\":\"sub\"},{\"name\":\"Gianluigi Buffon\",\"dbid\":18511,\"number\":1,\"position\":\"GK\",\"shortName\":\"Buffon\",\"squadRole\":\"sub\"},{\"name\":\"Antonio Candreva\",\"dbid\":19681,\"number\":6,\"position\":\"MF\",\"shortName\":\"Candreva\",\"squadRole\":\"sub\"},{\"name\":\"Stefano Sturaro\",\"dbid\":23552,\"number\":14,\"position\":\"MF\",\"shortName\":\"Sturaro\",\"squadRole\":\"starting\"},{\"name\":\"Alessandro Florenzi\",\"dbid\":19682,\"number\":8,\"position\":\"MF\",\"shortName\":\"Florenzi\",\"squadRole\":\"starting\"},{\"name\":\"Marco Parolo\",\"dbid\":22897,\"number\":18,\"position\":\"MF\",\"shortName\":\"Parolo\",\"squadRole\":\"sub\"},{\"name\":\"Daniele De Rossi\",\"dbid\":22916,\"number\":16,\"position\":\"MF\",\"shortName\":\"De Rossi\",\"squadRole\":\"sub\"},{\"name\":\"Thiago Motta\",\"dbid\":18542,\"number\":10,\"position\":\"MF\",\"shortName\":\"Motta\",\"squadRole\":\"starting\"}]}}",
    "expire": "1466659360893"
}