{
    "value": "{\"source\":\"fastestlivescores\",\"data\":{\"matchevents\":[{\"assistingPlayer\":{\"position\":\"FW\",\"shortName\":\"Müller\",\"number\":25,\"name\":\"Thomas Müller\",\"dbid\":18005},\"ownGoal\":false,\"scoringSide\":\"A\",\"dbid\":145602,\"homeTeam\":{\"shirtUrl\":\"https://static.crowdscores.com/kits/default.svg\",\"name\":\"Northern Ireland\",\"dbid\":423,\"flagUrl\":\"https://static.crowdscores.com/flags/north-ireland.png\",\"isNational\":true,\"badgeUrl\":\"https://static.crowdscores.com/badges/default.svg\",\"shortName\":\"N Ireland\",\"shortCode\":\"NIR\"},\"matchId\":47660,\"scoringPlayer\":{\"position\":\"FW\",\"shortName\":\"Gómez\",\"number\":33,\"name\":\"Mario Gómez\",\"dbid\":20028},\"awayTeam\":{\"shirtUrl\":\"https://static.crowdscores.com/kits/germany-home.svg\",\"name\":\"Germany\",\"dbid\":419,\"flagUrl\":\"https://static.crowdscores.com/flags/germany.png\",\"isNational\":true,\"badgeUrl\":\"https://static.crowdscores.com/badges/default.svg\",\"shortName\":\"Germany\",\"shortCode\":\"GER\"},\"awayGoals\":1,\"penalty\":null,\"matchTime\":{\"state\":1,\"minutes\":30,\"extra\":null},\"happenedAt\":1466526643000,\"matchTimeString\":\"30'\",\"homeGoals\":0,\"report\":false,\"competitionId\":\"267\",\"type\":\"goal\",\"round\":{\"dbid\":735,\"hasLeagueTable\":true,\"name\":\"Group C\"}},{\"awayTeam\":{\"shirtUrl\":\"https://static.crowdscores.com/kits/germany-home.svg\",\"name\":\"Germany\",\"dbid\":419,\"flagUrl\":\"https://static.crowdscores.com/flags/germany.png\",\"isNational\":true,\"badgeUrl\":\"https://static.crowdscores.com/badges/default.svg\",\"shortName\":\"Germany\",\"shortCode\":\"GER\"},\"dbid\":192218,\"homeTeam\":{\"shirtUrl\":\"https://static.crowdscores.com/kits/default.svg\",\"name\":\"Northern Ireland\",\"dbid\":423,\"flagUrl\":\"https://static.crowdscores.com/flags/north-ireland.png\",\"isNational\":true,\"badgeUrl\":\"https://static.crowdscores.com/badges/default.svg\",\"shortName\":\"N Ireland\",\"shortCode\":\"NIR\"},\"matchId\":47660,\"homeGoals\":0,\"awayGoals\":1,\"matchTime\":{\"state\":3,\"minutes\":90,\"extra\":4},\"happenedAt\":1466531379000,\"matchTimeString\":\"90+4'\",\"stateCode\":9,\"report\":false,\"competitionId\":\"267\",\"type\":\"state\",\"round\":{\"dbid\":735,\"hasLeagueTable\":true,\"name\":\"Group C\"}},{\"awayTeam\":{\"shirtUrl\":\"https://static.crowdscores.com/kits/germany-home.svg\",\"name\":\"Germany\",\"dbid\":419,\"flagUrl\":\"https://static.crowdscores.com/flags/germany.png\",\"isNational\":true,\"badgeUrl\":\"https://static.crowdscores.com/badges/default.svg\",\"shortName\":\"Germany\",\"shortCode\":\"GER\"},\"dbid\":192210,\"homeTeam\":{\"shirtUrl\":\"https://static.crowdscores.com/kits/default.svg\",\"name\":\"Northern Ireland\",\"dbid\":423,\"flagUrl\":\"https://static.crowdscores.com/flags/north-ireland.png\",\"isNational\":true,\"badgeUrl\":\"https://static.crowdscores.com/badges/default.svg\",\"shortName\":\"N Ireland\",\"shortCode\":\"NIR\"},\"matchId\":47660,\"homeGoals\":0,\"awayGoals\":1,\"matchTime\":{\"state\":3,\"minutes\":46,\"extra\":null},\"happenedAt\":1466528489039.34,\"matchTimeString\":\"46'\",\"stateCode\":3,\"report\":false,\"competitionId\":\"267\",\"type\":\"state\",\"round\":{\"dbid\":735,\"hasLeagueTable\":true,\"name\":\"Group C\"}},{\"awayTeam\":{\"shirtUrl\":\"https://static.crowdscores.com/kits/germany-home.svg\",\"name\":\"Germany\",\"dbid\":419,\"flagUrl\":\"https://static.crowdscores.com/flags/germany.png\",\"isNational\":true,\"badgeUrl\":\"https://static.crowdscores.com/badges/default.svg\",\"shortName\":\"Germany\",\"shortCode\":\"GER\"},\"dbid\":192209,\"homeTeam\":{\"shirtUrl\":\"https://static.crowdscores.com/kits/default.svg\",\"name\":\"Northern Ireland\",\"dbid\":423,\"flagUrl\":\"https://static.crowdscores.com/flags/north-ireland.png\",\"isNational\":true,\"badgeUrl\":\"https://static.crowdscores.com/badges/default.svg\",\"shortName\":\"N Ireland\",\"shortCode\":\"NIR\"},\"matchId\":47660,\"homeGoals\":0,\"awayGoals\":1,\"matchTime\":{\"state\":1,\"minutes\":45,\"extra\":1},\"happenedAt\":1466527583229.705,\"matchTimeString\":\"45+1'\",\"stateCode\":2,\"report\":false,\"competitionId\":\"267\",\"type\":\"state\",\"round\":{\"dbid\":735,\"hasLeagueTable\":true,\"name\":\"Group C\"}},{\"awayTeam\":{\"shirtUrl\":\"https://static.crowdscores.com/kits/germany-home.svg\",\"name\":\"Germany\",\"dbid\":419,\"flagUrl\":\"https://static.crowdscores.com/flags/germany.png\",\"isNational\":true,\"badgeUrl\":\"https://static.crowdscores.com/badges/default.svg\",\"shortName\":\"Germany\",\"shortCode\":\"GER\"},\"dbid\":192202,\"homeTeam\":{\"shirtUrl\":\"https://static.crowdscores.com/kits/default.svg\",\"name\":\"Northern Ireland\",\"dbid\":423,\"flagUrl\":\"https://static.crowdscores.com/flags/north-ireland.png\",\"isNational\":true,\"badgeUrl\":\"https://static.crowdscores.com/badges/default.svg\",\"shortName\":\"N Ireland\",\"shortCode\":\"NIR\"},\"matchId\":47660,\"homeGoals\":0,\"awayGoals\":0,\"matchTime\":{\"state\":1,\"minutes\":1,\"extra\":null},\"happenedAt\":1466524847242.708,\"matchTimeString\":\"1'\",\"stateCode\":1,\"report\":false,\"competitionId\":\"267\",\"type\":\"state\",\"round\":{\"dbid\":735,\"hasLeagueTable\":true,\"name\":\"Group C\"}},{\"playerOff\":{\"position\":\"MF\",\"shortName\":\"Evans\",\"number\":29,\"name\":\"Corry Evans\",\"dbid\":17668},\"dbid\":54735,\"homeTeam\":{\"shirtUrl\":\"https://static.crowdscores.com/kits/default.svg\",\"name\":\"Northern Ireland\",\"dbid\":423,\"flagUrl\":\"https://static.crowdscores.com/flags/north-ireland.png\",\"isNational\":true,\"badgeUrl\":\"https://static.crowdscores.com/badges/default.svg\",\"shortName\":\"N Ireland\",\"shortCode\":\"NIR\"},\"matchId\":47660,\"round\":{\"dbid\":735,\"hasLeagueTable\":true,\"name\":\"Group C\"},\"matchTime\":{\"state\":3,\"minutes\":83,\"extra\":null},\"happenedAt\":1466530760792.668,\"matchTimeString\":\"83'\",\"awayTeam\":{\"shirtUrl\":\"https://static.crowdscores.com/kits/germany-home.svg\",\"name\":\"Germany\",\"dbid\":419,\"flagUrl\":\"https://static.crowdscores.com/flags/germany.png\",\"isNational\":true,\"badgeUrl\":\"https://static.crowdscores.com/badges/default.svg\",\"shortName\":\"Germany\",\"shortCode\":\"GER\"},\"playerOn\":{\"position\":\"FW\",\"shortName\":\"McGinn\",\"number\":10,\"name\":\"Niall McGinn\",\"dbid\":16824},\"competitionId\":\"267\",\"type\":\"substitution\",\"side\":\"H\"},{\"playerOff\":{\"position\":\"DF\",\"shortName\":\"Boateng\",\"number\":17,\"name\":\"Jérôme Boateng\",\"dbid\":17999},\"dbid\":54734,\"homeTeam\":{\"shirtUrl\":\"https://static.crowdscores.com/kits/default.svg\",\"name\":\"Northern Ireland\",\"dbid\":423,\"flagUrl\":\"https://static.crowdscores.com/flags/north-ireland.png\",\"isNational\":true,\"badgeUrl\":\"https://static.crowdscores.com/badges/default.svg\",\"shortName\":\"N Ireland\",\"shortCode\":\"NIR\"},\"matchId\":47660,\"round\":{\"dbid\":735,\"hasLeagueTable\":true,\"name\":\"Group C\"},\"matchTime\":{\"state\":3,\"minutes\":75,\"extra\":null},\"happenedAt\":1466530280792.668,\"matchTimeString\":\"75'\",\"awayTeam\":{\"shirtUrl\":\"https://static.crowdscores.com/kits/germany-home.svg\",\"name\":\"Germany\",\"dbid\":419,\"flagUrl\":\"https://static.crowdscores.com/flags/germany.png\",\"isNational\":true,\"badgeUrl\":\"https://static.crowdscores.com/badges/default.svg\",\"shortName\":\"Germany\",\"shortCode\":\"GER\"},\"playerOn\":{\"position\":\"DF\",\"shortName\":\"Höwedes\",\"number\":4,\"name\":\"Benedikt Höwedes\",\"dbid\":18461},\"competitionId\":\"267\",\"type\":\"substitution\",\"side\":\"A\"},{\"playerOff\":{\"position\":\"FW\",\"shortName\":\"Ward\",\"number\":19,\"name\":\"Jamie Ward\",\"dbid\":19601},\"dbid\":54731,\"homeTeam\":{\"shirtUrl\":\"https://static.crowdscores.com/kits/default.svg\",\"name\":\"Northern Ireland\",\"dbid\":423,\"flagUrl\":\"https://static.crowdscores.com/flags/north-ireland.png\",\"isNational\":true,\"badgeUrl\":\"https://static.crowdscores.com/badges/default.svg\",\"shortName\":\"N Ireland\",\"shortCode\":\"NIR\"},\"matchId\":47660,\"round\":{\"dbid\":735,\"hasLeagueTable\":true,\"name\":\"Group C\"},\"matchTime\":{\"state\":3,\"minutes\":69,\"extra\":null},\"happenedAt\":1466529920792.668,\"matchTimeString\":\"69'\",\"awayTeam\":{\"shirtUrl\":\"https://static.crowdscores.com/kits/germany-home.svg\",\"name\":\"Germany\",\"dbid\":419,\"flagUrl\":\"https://static.crowdscores.com/flags/germany.png\",\"isNational\":true,\"badgeUrl\":\"https://static.crowdscores.com/badges/default.svg\",\"shortName\":\"Germany\",\"shortCode\":\"GER\"},\"playerOn\":{\"position\":\"FW\",\"shortName\":\"Magennis\",\"number\":28,\"name\":\"Josh Magennis\",\"dbid\":16833},\"competitionId\":\"267\",\"type\":\"substitution\",\"side\":\"H\"},{\"playerOff\":{\"position\":\"MF\",\"shortName\":\"Khedira\",\"number\":6,\"name\":\"Sami Khedira\",\"dbid\":18420},\"dbid\":54730,\"homeTeam\":{\"shirtUrl\":\"https://static.crowdscores.com/kits/default.svg\",\"name\":\"Northern Ireland\",\"dbid\":423,\"flagUrl\":\"https://static.crowdscores.com/flags/north-ireland.png\",\"isNational\":true,\"badgeUrl\":\"https://static.crowdscores.com/badges/default.svg\",\"shortName\":\"N Ireland\",\"shortCode\":\"NIR\"},\"matchId\":47660,\"round\":{\"dbid\":735,\"hasLeagueTable\":true,\"name\":\"Group C\"},\"matchTime\":{\"state\":3,\"minutes\":68,\"extra\":null},\"happenedAt\":1466529860792.668,\"matchTimeString\":\"68'\",\"awayTeam\":{\"shirtUrl\":\"https://static.crowdscores.com/kits/germany-home.svg\",\"name\":\"Germany\",\"dbid\":419,\"flagUrl\":\"https://static.crowdscores.com/flags/germany.png\",\"isNational\":true,\"badgeUrl\":\"https://static.crowdscores.com/badges/default.svg\",\"shortName\":\"Germany\",\"shortCode\":\"GER\"},\"playerOn\":{\"position\":\"MF\",\"shortName\":\"Schweinsteiger\",\"number\":31,\"name\":\"Bastian Schweinsteiger\",\"dbid\":18009},\"competitionId\":\"267\",\"type\":\"substitution\",\"side\":\"A\"},{\"playerOff\":{\"position\":\"FW\",\"shortName\":\"Washington\",\"number\":9,\"name\":\"Conor Washington\",\"dbid\":22341},\"dbid\":54729,\"homeTeam\":{\"shirtUrl\":\"https://static.crowdscores.com/kits/default.svg\",\"name\":\"Northern Ireland\",\"dbid\":423,\"flagUrl\":\"https://static.crowdscores.com/flags/north-ireland.png\",\"isNational\":true,\"badgeUrl\":\"https://static.crowdscores.com/badges/default.svg\",\"shortName\":\"N Ireland\",\"shortCode\":\"NIR\"},\"matchId\":47660,\"round\":{\"dbid\":735,\"hasLeagueTable\":true,\"name\":\"Group C\"},\"matchTime\":{\"state\":3,\"minutes\":58,\"extra\":null},\"happenedAt\":1466529260792.668,\"matchTimeString\":\"58'\",\"awayTeam\":{\"shirtUrl\":\"https://static.crowdscores.com/kits/germany-home.svg\",\"name\":\"Germany\",\"dbid\":419,\"flagUrl\":\"https://static.crowdscores.com/flags/germany.png\",\"isNational\":true,\"badgeUrl\":\"https://static.crowdscores.com/badges/default.svg\",\"shortName\":\"Germany\",\"shortCode\":\"GER\"},\"playerOn\":{\"position\":\"FW\",\"shortName\":\"Lafferty\",\"number\":25,\"name\":\"Kyle Lafferty\",\"dbid\":26416},\"competitionId\":\"267\",\"type\":\"substitution\",\"side\":\"H\"},{\"playerOff\":{\"position\":\"MF\",\"shortName\":\"Götze\",\"number\":19,\"name\":\"Mario Götze\",\"dbid\":18000},\"dbid\":54728,\"homeTeam\":{\"shirtUrl\":\"https://static.crowdscores.com/kits/default.svg\",\"name\":\"Northern Ireland\",\"dbid\":423,\"flagUrl\":\"https://static.crowdscores.com/flags/north-ireland.png\",\"isNational\":true,\"badgeUrl\":\"https://static.crowdscores.com/badges/default.svg\",\"shortName\":\"N Ireland\",\"shortCode\":\"NIR\"},\"matchId\":47660,\"round\":{\"dbid\":735,\"hasLeagueTable\":true,\"name\":\"Group C\"},\"matchTime\":{\"state\":3,\"minutes\":54,\"extra\":null},\"happenedAt\":1466529020792.668,\"matchTimeString\":\"54'\",\"awayTeam\":{\"shirtUrl\":\"https://static.crowdscores.com/kits/germany-home.svg\",\"name\":\"Germany\",\"dbid\":419,\"flagUrl\":\"https://static.crowdscores.com/flags/germany.png\",\"isNational\":true,\"badgeUrl\":\"https://static.crowdscores.com/badges/default.svg\",\"shortName\":\"Germany\",\"shortCode\":\"GER\"},\"playerOn\":{\"position\":\"MF\",\"shortName\":\"Schürrle\",\"number\":17,\"name\":\"André Schürrle\",\"dbid\":16988},\"competitionId\":\"267\",\"type\":\"substitution\",\"side\":\"A\"}],\"competition\":{\"ordering\":4500,\"dbid\":267,\"name\":\"European Championship\",\"flagUrl\":\"https://static.crowdscores.com/flags/uefa.png\"},\"nextState\":null,\"currentStateStart\":1466531379000,\"dbid\":47660,\"aggregateScore\":null,\"awayGoals\":1,\"start\":1466524800000,\"homeGoals\":0,\"extraTimeHasHappened\":false,\"linesOfText\":[],\"season\":{\"dbid\":11,\"end\":1483225200000,\"name\":\"2016\",\"start\":1451610000000},\"homeTeam\":{\"shirtUrl\":\"https://static.crowdscores.com/kits/default.svg\",\"name\":\"Northern Ireland\",\"dbid\":423,\"flagUrl\":\"https://static.crowdscores.com/flags/north-ireland.png\",\"isNational\":true,\"badgeUrl\":\"https://static.crowdscores.com/badges/default.svg\",\"shortName\":\"N Ireland\",\"shortCode\":\"NIR\"},\"awayPlayers\":[{\"name\":\"Shkodran Mustafi\",\"dbid\":23134,\"number\":2,\"position\":\"DF\",\"shortName\":\"Mustafi\",\"squadRole\":\"sub\"},{\"name\":\"Benedikt Höwedes\",\"dbid\":18461,\"number\":4,\"position\":\"DF\",\"shortName\":\"Höwedes\",\"squadRole\":\"sub\"},{\"name\":\"Mats Hummels\",\"dbid\":18494,\"number\":5,\"position\":\"DF\",\"shortName\":\"Hummels\",\"squadRole\":\"starting\"},{\"name\":\"Jonas Hector\",\"dbid\":27398,\"number\":3,\"position\":\"DF\",\"shortName\":\"Hector\",\"squadRole\":\"starting\"},{\"name\":\"Jérôme Boateng\",\"dbid\":17999,\"number\":17,\"position\":\"DF\",\"shortName\":\"Boateng\",\"squadRole\":\"starting\"},{\"name\":\"Jonathan Tah\",\"dbid\":25280,\"number\":16,\"position\":\"DF\",\"shortName\":\"Tah\",\"squadRole\":\"sub\"},{\"name\":\"Lukas Podolski\",\"dbid\":17473,\"number\":10,\"position\":\"FW\",\"shortName\":\"Podolski\",\"squadRole\":\"sub\"},{\"name\":\"Mario Gómez\",\"dbid\":20028,\"number\":23,\"position\":\"FW\",\"shortName\":\"Gómez\",\"squadRole\":\"starting\"},{\"name\":\"Thomas Müller\",\"dbid\":18005,\"number\":13,\"position\":\"FW\",\"shortName\":\"Müller\",\"squadRole\":\"starting\"},{\"name\":\"Manuel Neuer\",\"dbid\":17988,\"number\":1,\"position\":\"GK\",\"shortName\":\"Neuer\",\"squadRole\":\"starting\"},{\"name\":\"Bernd Leno\",\"dbid\":18292,\"number\":12,\"position\":\"GK\",\"shortName\":\"Leno\",\"squadRole\":\"sub\"},{\"name\":\"Marc-André ter Stegen\",\"dbid\":25202,\"number\":22,\"position\":\"GK\",\"shortName\":\"ter Stegen\",\"squadRole\":\"sub\"},{\"name\":\"Bastian Schweinsteiger\",\"dbid\":18009,\"number\":7,\"position\":\"MF\",\"shortName\":\"Schweinsteiger\",\"squadRole\":\"sub\"},{\"name\":\"Toni Kroos\",\"dbid\":18012,\"number\":18,\"position\":\"MF\",\"shortName\":\"Kroos\",\"squadRole\":\"starting\"},{\"name\":\"Sami Khedira\",\"dbid\":18420,\"number\":6,\"position\":\"MF\",\"shortName\":\"Khedira\",\"squadRole\":\"starting\"},{\"name\":\"Mesut Özil\",\"dbid\":18622,\"number\":8,\"position\":\"MF\",\"shortName\":\"Özil\",\"squadRole\":\"starting\"},{\"name\":\"Mario Götze\",\"dbid\":18000,\"number\":19,\"position\":\"MF\",\"shortName\":\"Götze\",\"squadRole\":\"starting\"},{\"name\":\"Leroy Sané\",\"dbid\":28630,\"number\":20,\"position\":\"MF\",\"shortName\":\"Sané\",\"squadRole\":\"sub\"},{\"name\":\"Julian Weigl\",\"dbid\":43039,\"number\":15,\"position\":\"MF\",\"shortName\":\"Weigl\",\"squadRole\":\"sub\"},{\"name\":\"Julian Draxler\",\"dbid\":18467,\"number\":11,\"position\":\"MF\",\"shortName\":\"Draxler\",\"squadRole\":\"sub\"},{\"name\":\"Joshua Kimmich\",\"dbid\":42903,\"number\":21,\"position\":\"MF\",\"shortName\":\"Kimmich\",\"squadRole\":\"starting\"},{\"name\":\"Emre Can\",\"dbid\":18301,\"number\":14,\"position\":\"MF\",\"shortName\":\"Can\",\"squadRole\":\"sub\"},{\"name\":\"André Schürrle\",\"dbid\":16988,\"number\":9,\"position\":\"MF\",\"shortName\":\"Schürrle\",\"squadRole\":\"sub\"}],\"dismissals\":{\"home\":0,\"away\":0},\"penaltyShootout\":{},\"isResult\":true,\"goToExtraTime\":false,\"venue\":{\"dbid\":532,\"capacity\":48712,\"name\":\"Parc des Princes\",\"geolocation\":{\"latitude\":48.8413888889,\"longitude\":2.25305555556}},\"limitedCoverage\":false,\"awayTeam\":{\"shirtUrl\":\"https://static.crowdscores.com/kits/germany-home.svg\",\"name\":\"Germany\",\"dbid\":419,\"flagUrl\":\"https://static.crowdscores.com/flags/germany.png\",\"isNational\":true,\"badgeUrl\":\"https://static.crowdscores.com/badges/default.svg\",\"shortName\":\"Germany\",\"shortCode\":\"GER\"},\"currentState\":9,\"outcome\":{\"winner\":\"away\",\"type\":\"simple\",\"afterExtraTime\":false},\"round\":{\"dbid\":735,\"hasLeagueTable\":true,\"name\":\"Group C\"},\"homePlayers\":[{\"name\":\"Luke McCullough\",\"dbid\":21690,\"number\":15,\"position\":\"DF\",\"shortName\":\"McCullough\",\"squadRole\":\"sub\"},{\"name\":\"Conor McLaughlin\",\"dbid\":22567,\"number\":2,\"position\":\"DF\",\"shortName\":\"McLaughlin\",\"squadRole\":\"sub\"},{\"name\":\"Jonny Evans\",\"dbid\":16921,\"number\":5,\"position\":\"DF\",\"shortName\":\"Evans\",\"squadRole\":\"starting\"},{\"name\":\"Aaron Hughes\",\"dbid\":17424,\"number\":18,\"position\":\"DF\",\"shortName\":\"Hughes\",\"squadRole\":\"starting\"},{\"name\":\"Craig Cathcart\",\"dbid\":19595,\"number\":20,\"position\":\"DF\",\"shortName\":\"Cathcart\",\"squadRole\":\"starting\"},{\"name\":\"Lee Hodson\",\"dbid\":19596,\"number\":22,\"position\":\"DF\",\"shortName\":\"Hodson\",\"squadRole\":\"sub\"},{\"name\":\"Paddy McNair\",\"dbid\":32562,\"number\":17,\"position\":\"DF\",\"shortName\":\"McNair\",\"squadRole\":\"sub\"},{\"name\":\"Gareth McAuley\",\"dbid\":17098,\"number\":4,\"position\":\"DF\",\"shortName\":\"McAuley\",\"squadRole\":\"starting\"},{\"name\":\"Josh Magennis\",\"dbid\":16833,\"number\":21,\"position\":\"FW\",\"shortName\":\"Magennis\",\"squadRole\":\"sub\"},{\"name\":\"Jamie Ward\",\"dbid\":19601,\"number\":19,\"position\":\"FW\",\"shortName\":\"Ward\",\"squadRole\":\"starting\"},{\"name\":\"Conor Washington\",\"dbid\":22341,\"number\":11,\"position\":\"FW\",\"shortName\":\"Washington\",\"squadRole\":\"starting\"},{\"name\":\"Will Grigg\",\"dbid\":19602,\"number\":9,\"position\":\"FW\",\"shortName\":\"Grigg\",\"squadRole\":\"sub\"},{\"name\":\"Niall McGinn\",\"dbid\":16824,\"number\":7,\"position\":\"FW\",\"shortName\":\"McGinn\",\"squadRole\":\"sub\"},{\"name\":\"Kyle Lafferty\",\"dbid\":26416,\"number\":10,\"position\":\"FW\",\"shortName\":\"Lafferty\",\"squadRole\":\"sub\"},{\"name\":\"Alan Mannus\",\"dbid\":17196,\"number\":23,\"position\":\"GK\",\"shortName\":\"Mannus\",\"squadRole\":\"sub\"},{\"name\":\"Roy Carroll\",\"dbid\":18186,\"number\":12,\"position\":\"GK\",\"shortName\":\"Carroll\",\"squadRole\":\"sub\"},{\"name\":\"Michael McGovern\",\"dbid\":19594,\"number\":1,\"position\":\"GK\",\"shortName\":\"McGovern\",\"squadRole\":\"starting\"},{\"name\":\"Oliver Norwood\",\"dbid\":19599,\"number\":16,\"position\":\"MF\",\"shortName\":\"Norwood\",\"squadRole\":\"starting\"},{\"name\":\"Steven Davis\",\"dbid\":17228,\"number\":8,\"position\":\"MF\",\"shortName\":\"S. Davis\",\"squadRole\":\"starting\"},{\"name\":\"Shane Ferguson\",\"dbid\":18841,\"number\":3,\"position\":\"MF\",\"shortName\":\"Ferguson\",\"squadRole\":\"sub\"},{\"name\":\"Chris Baird\",\"dbid\":19598,\"number\":6,\"position\":\"MF\",\"shortName\":\"Baird\",\"squadRole\":\"sub\"},{\"name\":\"Stuart Dallas\",\"dbid\":21967,\"number\":14,\"position\":\"MF\",\"shortName\":\"Dallas\",\"squadRole\":\"starting\"},{\"name\":\"Corry Evans\",\"dbid\":17668,\"number\":13,\"position\":\"MF\",\"shortName\":\"Evans\",\"squadRole\":\"starting\"}]}}",
    "expire": "1466630317699"
}